<?xml version="1.0" encoding="UTF-8"?>
<svg width="98px" height="99px" viewBox="0 0 98 99" version="1.1" xmlns="http://www.w3.org/2000/svg" xmlns:xlink="http://www.w3.org/1999/xlink">
    <!-- Generator: Sketch 56 (81588) - https://sketch.com -->
    <title>Shape</title>
    <desc>Created with Sketch.</desc>
    <g id="Page-1" stroke="none" stroke-width="1" fill="none" fill-rule="evenodd">
        <g id="noun_Globe_2731602" fill="#FFFFFF" fill-rule="nonzero">
            <g id="Group">
                <path d="M98,49 C98,34.8 91.9,22 82.2,13 C82.2,13 82.2,13 82.2,12.9 C82.2,12.9 82.1,12.8 82.1,12.8 C73.3,4.9 61.7,0 49,0 C36.2,0 24.6,4.9 15.9,12.9 C15.9,12.9 15.8,12.9 15.8,13 C15.8,13 15.8,13 15.8,13 C6.1,22 0,34.8 0,49 C0,63.2 6.1,76 15.8,85 C15.8,85 15.8,85 15.8,85.1 C15.8,85.1 15.9,85.1 15.9,85.2 C24.3,92.9 35.5,97.8 47.8,98.1 C47.9,98.1 48,98.1 48.1,98.1 C48.2,98.1 48.2,98.1 48.3,98.1 C48.6,98.1 48.8,98.1 49.1,98.1 C49.4,98.1 49.7,98.1 50,98.1 C50,98.1 50.1,98.1 50.1,98.1 C50.1,98.1 50.2,98.1 50.2,98.1 C62.5,97.8 73.8,93 82.2,85.2 C82.2,85.2 82.3,85.2 82.3,85.1 C82.3,85.1 82.3,85.1 82.3,85.1 C91.9,76 98,63.2 98,49 L98,49 Z M80.4,80.5 C77.2,77.8 73.8,75.6 70.1,73.8 C73.4,66.8 75.3,59.1 75.6,51.2 L93.4,51.2 C92.9,62.6 88,72.9 80.4,80.5 L80.4,80.5 Z M51.2,90.7 L51.2,73.6 C55.6,73.8 59.8,74.7 63.9,76.1 C60.6,81.6 56.4,86.6 51.2,90.7 L51.2,90.7 Z M51.2,69.1 L51.2,51.2 L71.2,51.2 C70.9,58.6 69.1,65.6 66,72.1 C61.3,70.4 56.3,69.4 51.2,69.1 L51.2,69.1 Z M51.2,46.8 L51.2,28.9 C56.3,28.7 61.3,27.7 66,25.9 C69.1,32.3 70.9,39.4 71.2,46.8 L51.2,46.8 L51.2,46.8 Z M51.2,24.4 L51.2,7.3 C56.3,11.4 60.6,16.4 63.9,21.9 C59.8,23.3 55.6,24.2 51.2,24.4 L51.2,24.4 Z M55.4,5 C63.5,6.2 71,9.5 77.1,14.5 C74.3,16.8 71.3,18.7 68.1,20.2 C64.8,14.5 60.5,9.3 55.4,5 L55.4,5 Z M46.8,7.3 L46.8,24.4 C42.4,24.2 38.2,23.3 34.1,21.9 C37.4,16.4 41.6,11.4 46.8,7.3 L46.8,7.3 Z M29.9,20.2 C26.7,18.7 23.7,16.8 20.9,14.5 C27,9.5 34.4,6.2 42.6,5 C37.5,9.3 33.2,14.5 29.9,20.2 L29.9,20.2 Z M46.8,28.9 L46.8,46.8 L26.8,46.8 C27.1,39.4 28.9,32.4 32,25.9 C36.7,27.6 41.7,28.6 46.8,28.9 L46.8,28.9 Z M46.8,51.2 L46.8,69.1 C41.7,69.3 36.7,70.3 32,72.1 C28.9,65.7 27.1,58.6 26.8,51.2 L46.8,51.2 L46.8,51.2 Z M46.8,73.6 L46.8,90.7 C41.7,86.6 37.4,81.6 34.1,76.1 C38.2,74.7 42.4,73.8 46.8,73.6 L46.8,73.6 Z M42.6,93 C34.5,91.8 27,88.5 20.9,83.5 C23.7,81.2 26.7,79.3 29.9,77.8 C33.2,83.5 37.5,88.7 42.6,93 L42.6,93 Z M68.1,77.8 C71.3,79.3 74.3,81.2 77.1,83.5 C71,88.5 63.6,91.8 55.4,93 C60.5,88.7 64.8,83.5 68.1,77.8 L68.1,77.8 Z M93.4,46.8 L75.7,46.8 C75.4,38.8 73.5,31.2 70.2,24.2 C73.9,22.4 77.3,20.2 80.5,17.5 C88,25.1 92.9,35.4 93.4,46.8 L93.4,46.8 Z M17.6,17.5 C20.8,20.2 24.2,22.4 27.9,24.2 C24.6,31.2 22.7,38.9 22.4,46.8 L4.6,46.8 C5.1,35.4 10,25.1 17.6,17.5 L17.6,17.5 Z M4.6,51.2 L22.4,51.2 C22.7,59.2 24.6,66.8 27.9,73.8 C24.2,75.6 20.8,77.8 17.6,80.5 C10,72.9 5.1,62.6 4.6,51.2 L4.6,51.2 Z" id="Shape"></path>
            </g>
        </g>
    </g>
</svg>