<?xml version="1.0" encoding="UTF-8"?>
<svg width="86px" height="86px" viewBox="0 0 86 86" version="1.1" xmlns="http://www.w3.org/2000/svg" xmlns:xlink="http://www.w3.org/1999/xlink">
    <!-- Generator: Sketch 57 (83077) - https://sketch.com -->
    <title>iconfinder_Instagram_glyph_svg_5335781</title>
    <desc>Created with Sketch.</desc>
    <g id="Page-1" stroke="none" stroke-width="1" fill="none" fill-rule="evenodd">
        <g id="iconfinder_Instagram_glyph_svg_5335781" transform="translate(0.333333, 0.333333)" fill="#FFFFFF">
            <path d="M42.6666002,-4.29833333e-06 C31.0789856,-4.29833333e-06 29.6260033,0.0491115517 25.0751657,0.256753042 C20.5338126,0.464055802 17.4322314,1.18521197 14.7181572,2.24001719 C11.9124566,3.33038906 9.53304775,4.78929917 7.16109093,7.161256 C4.7891341,9.53321282 3.33022399,11.9126217 2.23985212,14.7183223 C1.1850469,17.4322271 0.463890735,20.5338083 0.256587975,25.0751614 C0.048946485,29.625999 0,31.0789813 0,42.6665959 C0,54.2540411 0.048946485,55.7070234 0.256587975,60.257861 C0.463890735,64.7992141 1.1850469,67.9007953 2.23985212,70.6147001 C3.33022399,73.4204007 4.7891341,75.7998095 7.16109093,78.1719357 C9.53304775,80.5438926 11.9124566,82.0028027 14.7181572,83.0931745 C17.4322314,84.1478104 20.5338126,84.8691359 25.0751657,85.0762693 C29.6260033,85.2839108 31.0789856,85.3330267 42.6666002,85.3330267 C54.2540454,85.3330267 55.7070277,85.2839108 60.2578653,85.0762693 C64.7992184,84.8691359 67.9007996,84.1478104 70.6147044,83.0931745 C73.420405,82.0028027 75.7998138,80.5438926 78.17194,78.1719357 C80.5438969,75.7998095 82.002807,73.4204007 83.0931788,70.6147001 C84.1478147,67.9007953 84.8691402,64.7992141 85.0762736,60.257861 C85.2839151,55.7070234 85.333031,54.2540411 85.333031,42.6665959 C85.333031,31.0789813 85.2839151,29.625999 85.0762736,25.0751614 C84.8691402,20.5338083 84.1478147,17.4322271 83.0931788,14.7183223 C82.002807,11.9126217 80.5438969,9.53321282 78.17194,7.161256 C75.7998138,4.78929917 73.420405,3.33038906 70.6147044,2.24001719 C67.9007996,1.18521197 64.7992184,0.464055802 60.2578653,0.256753042 C55.7070277,0.0491115517 54.2540454,-4.29833333e-06 42.6666002,-4.29833333e-06 Z M42.6666002,7.68781178 C54.0589369,7.68781178 55.4084372,7.73116922 59.9074491,7.9364396 C64.0673922,8.12629777 66.3265519,8.82137173 67.830005,9.40551161 C69.8215681,10.1795097 71.2428792,11.1042426 72.7358316,12.597195 C74.2289535,14.0901475 75.153517,15.511628 75.9275151,17.5030216 C76.5118243,19.0064747 77.2068983,21.2656345 77.3965871,25.4255776 C77.6018574,29.9245895 77.6453842,31.2740898 77.6453842,42.6665959 C77.6453842,54.0589326 77.6018574,55.4084329 77.3965871,59.9074448 C77.2068983,64.0673879 76.5118243,66.3265476 75.9275151,67.8300007 C75.153517,69.8215638 74.2289535,71.2428749 72.7358316,72.7358273 C71.2428792,74.2289492 69.8215681,75.1535127 67.830005,75.9275108 C66.3265519,76.51182 64.0673922,77.206894 59.9074491,77.3965828 C55.4091147,77.6018531 54.0597837,77.64538 42.6666002,77.64538 C31.2732472,77.64538 29.9240857,77.6018531 25.4255819,77.3965828 C21.2656388,77.206894 19.006479,76.51182 17.5030259,75.9275108 C15.5114629,75.1535127 14.0901518,74.2289492 12.59703,72.7358273 C11.1040775,71.2428749 10.1793446,69.8215638 9.40551591,67.8300007 C8.82120666,66.3265476 8.1261327,64.0673879 7.93627453,59.9074448 C7.73100415,55.4084329 7.68764671,54.0589326 7.68764671,42.6665959 C7.68764671,31.2740898 7.73100415,29.9245895 7.93627453,25.4255776 C8.1261327,21.2656345 8.82120666,19.0064747 9.40551591,17.5030216 C10.1793446,15.511628 11.1040775,14.0901475 12.59703,12.597195 C14.0901518,11.1042426 15.5114629,10.1795097 17.5030259,9.40551161 C19.006479,8.82137173 21.2656388,8.12629777 25.4255819,7.9364396 C29.9245938,7.73116922 31.2740941,7.68781178 42.6666002,7.68781178 Z" id="Shape"></path>
            <path d="M42.6666002,56.888683 C34.8117902,56.888683 28.4443437,50.5212365 28.4443437,42.6665959 C28.4443437,34.8117859 34.8117902,28.4443394 42.6666002,28.4443394 C50.5212408,28.4443394 56.8886873,34.8117859 56.8886873,42.6665959 C56.8886873,50.5212365 50.5212408,56.888683 42.6666002,56.888683 Z M42.6666002,20.7566926 C30.565979,20.7566926 20.7566969,30.5659747 20.7566969,42.6665959 C20.7566969,54.7670477 30.565979,64.5763297 42.6666002,64.5763297 C54.767052,64.5763297 64.576334,54.7670477 64.576334,42.6665959 C64.576334,30.5659747 54.767052,20.7566926 42.6666002,20.7566926 Z" id="Shape" fill-rule="nonzero"></path>
            <path d="M70.5620319,19.8910681 C70.5620319,22.7187862 68.2696766,25.0109721 65.4419585,25.0109721 C62.6144099,25.0109721 60.3220546,22.7187862 60.3220546,19.8910681 C60.3220546,17.0633501 62.6144099,14.7711642 65.4419585,14.7711642 C68.2696766,14.7711642 70.5620319,17.0633501 70.5620319,19.8910681 Z" id="Path" fill-rule="nonzero"></path>
        </g>
    </g>
</svg>