<?xml version="1.0" encoding="UTF-8"?>
<svg width="50px" height="50px" viewBox="0 0 50 50" version="1.1" xmlns="http://www.w3.org/2000/svg" xmlns:xlink="http://www.w3.org/1999/xlink">
    <!-- Generator: Sketch 57 (83077) - https://sketch.com -->
    <title>Artboard</title>
    <desc>Created with Sketch.</desc>
    <g id="Artboard" stroke="none" stroke-width="1" fill="none" fill-rule="evenodd">
        <g id="bot" transform="translate(9.000000, 9.000000)">
            <rect id="Rectangle" fill="#FFFFFF" fill-rule="nonzero" x="18" y="10" width="2" height="2"></rect>
            <rect id="Rectangle" fill="#FFFFFF" fill-rule="nonzero" x="12" y="10" width="2" height="2"></rect>
            <path d="M26,20 L21,20 L21,18 L22,18 C23.1040441,17.9987325 23.9987325,17.1040441 24,16 L24,12 L26,12 L26,10 L24,10 L24,8 C23.9987325,6.89595593 23.1040441,6.00126747 22,6 L20,6 L20,2 L18,2 L18,6 L14,6 L14,2 L12,2 L12,6 L10,6 C8.89595593,6.00126747 8.00126747,6.89595593 8,8 L8,10 L6,10 L6,12 L8,12 L8,16 C8.00126747,17.1040441 8.89595593,17.9987325 10,18 L11,18 L11,20 L6,20 C4.89595593,20.0012675 4.00126747,20.8959559 4,22 L4,30 L6,30 L6,22 L26,22 L26,30 L28,30 L28,22 C27.9987325,20.8959559 27.1040441,20.0012675 26,20 Z M10,8 L22,8 L22,16 L10,16 L10,8 Z M13,18 L19,18 L19,20 L13,20 L13,18 Z" id="Shape" fill="#FFFFFF" fill-rule="nonzero"></path>
            <rect id="_Transparent_Rectangle_" x="0" y="0" width="32" height="32"></rect>
        </g>
    </g>
</svg>