<?xml version="1.0" encoding="UTF-8"?>
<svg width="50px" height="50px" viewBox="0 0 50 50" version="1.1" xmlns="http://www.w3.org/2000/svg" xmlns:xlink="http://www.w3.org/1999/xlink">
    <!-- Generator: Sketch 57 (83077) - https://sketch.com -->
    <title>icon-</title>
    <desc>Created with Sketch.</desc>
    <g id="icon-" stroke="none" stroke-width="1" fill="none" fill-rule="evenodd">
        <g id="icon-instagram" transform="translate(11.000000, 11.000000)" fill="#FFFFFF" fill-rule="nonzero">
            <path d="M14.0000278,0 C10.1978283,0 9.72106677,0.0161161954 8.2278179,0.0842488008 C6.73768113,0.15227026 5.71997119,0.388900466 4.82941244,0.735009655 C3.90878867,1.09278919 3.12804238,1.57149577 2.34974129,2.34979686 C1.57144019,3.12809795 1.09273362,3.90884425 0.734954081,4.82946803 C0.388844892,5.71997119 0.152214687,6.73768113 0.0841932276,8.2278179 C0.0160606223,9.72106677 0,10.1978283 0,14.0000278 C0,17.8021717 0.0160606223,18.2789332 0.0841932276,19.7721821 C0.152214687,21.2623189 0.388844892,22.2800288 0.734954081,23.170532 C1.09273362,24.0911557 1.57144019,24.871902 2.34974129,25.6502587 C3.12804238,26.4285598 3.90878867,26.9072664 4.82941244,27.2650459 C5.71997119,27.6110995 6.73768113,27.8477853 8.2278179,27.9157512 C9.72106677,27.9838838 10.1978283,28 14.0000278,28 C17.8021717,28 18.2789332,27.9838838 19.7721821,27.9157512 C21.2623189,27.8477853 22.2800288,27.6110995 23.170532,27.2650459 C24.0911557,26.9072664 24.871902,26.4285598 25.6502587,25.6502587 C26.4285598,24.871902 26.9072664,24.0911557 27.2650459,23.170532 C27.6110995,22.2800288 27.8477853,21.2623189 27.9157512,19.7721821 C27.9838838,18.2789332 28,17.8021717 28,14.0000278 C28,10.1978283 27.9838838,9.72106677 27.9157512,8.2278179 C27.8477853,6.73768113 27.6110995,5.71997119 27.2650459,4.82946803 C26.9072664,3.90884425 26.4285598,3.12809795 25.6502587,2.34979686 C24.871902,1.57149577 24.0911557,1.09278919 23.170532,0.735009655 C22.2800288,0.388900466 21.2623189,0.15227026 19.7721821,0.0842488008 C18.2789332,0.0161161954 17.8021717,0 14.0000278,0 Z M14.0000278,2.52257359 C17.7381515,2.52257359 18.1809579,2.5368003 19.6572014,2.60415488 C21.0221875,2.66645231 21.7634769,2.89452426 22.2567992,3.08619584 C22.9102832,3.34016486 23.3766526,3.64359392 23.8665293,4.13347066 C24.3564617,4.62334744 24.6598351,5.08977238 24.9138042,5.74320072 C25.1055313,6.23652302 25.3336033,6.97781245 25.3958451,8.34279862 C25.4631997,9.81904213 25.477482,10.2618485 25.477482,14.0000278 C25.477482,17.7381515 25.4631997,18.1809579 25.3958451,19.6572014 C25.3336033,21.0221875 25.1055313,21.7634769 24.9138042,22.2567992 C24.6598351,22.9102832 24.3564617,23.3766526 23.8665293,23.8665293 C23.3766526,24.3564617 22.9102832,24.6598351 22.2567992,24.9138042 C21.7634769,25.1055313 21.0221875,25.3336033 19.6572014,25.3958451 C18.1811802,25.4631997 17.7384294,25.477482 14.0000278,25.477482 C10.2615706,25.477482 9.81887541,25.4631997 8.34279862,25.3958451 C6.97781245,25.3336033 6.23652302,25.1055313 5.74320072,24.9138042 C5.0897168,24.6598351 4.62334744,24.3564617 4.13341511,23.8665293 C3.64353834,23.3766526 3.34010928,22.9102832 3.08619584,22.2567992 C2.89446869,21.7634769 2.66639674,21.0221875 2.60409931,19.6572014 C2.53674472,18.1809579 2.52251801,17.7381515 2.52251801,14.0000278 C2.52251801,10.2618485 2.53674472,9.81904213 2.60409931,8.34279862 C2.66639674,6.97781245 2.89446869,6.23652302 3.08619584,5.74320072 C3.34010928,5.08977238 3.64353834,4.62334744 4.13341511,4.13347066 C4.62334744,3.64359392 5.0897168,3.34016486 5.74320072,3.08619584 C6.23652302,2.89452426 6.97781245,2.66645231 8.34279862,2.60415488 C9.81904213,2.5368003 10.2618485,2.52257359 14.0000278,2.52257359 Z" id="Shape"></path>
            <path d="M14.0000271,18.5438625 C11.4904823,18.5438625 9.45613753,16.5095177 9.45613753,14.0000271 C9.45613753,11.4904823 11.4904823,9.45613753 14.0000271,9.45613753 C16.5095177,9.45613753 18.5438625,11.4904823 18.5438625,14.0000271 C18.5438625,16.5095177 16.5095177,18.5438625 14.0000271,18.5438625 Z M14.0000271,7 C10.1339819,7 7,10.1339819 7,14.0000271 C7,17.8660181 10.1339819,21 14.0000271,21 C17.8660181,21 21,17.8660181 21,14.0000271 C21,10.1339819 17.8660181,7 14.0000271,7 Z" id="Shape"></path>
            <path d="M23,7 C23,8.10459809 22.1045467,9 20.9999669,9 C19.8954533,9 19,8.10459809 19,7 C19,5.89540191 19.8954533,5 20.9999669,5 C22.1045467,5 23,5.89540191 23,7 Z" id="Path"></path>
        </g>
    </g>
</svg>