<?xml version="1.0" encoding="UTF-8"?>
<svg width="50px" height="50px" viewBox="0 0 50 50" version="1.1" xmlns="http://www.w3.org/2000/svg" xmlns:xlink="http://www.w3.org/1999/xlink">
    <!-- Generator: Sketch 57 (83077) - https://sketch.com -->
    <title>Artboard</title>
    <desc>Created with Sketch.</desc>
    <g id="Artboard" stroke="none" stroke-width="1" fill="none" fill-rule="evenodd">
        <g id="Enterprise-/-Health-/-3D-software-/-32" transform="translate(9.000000, 9.000000)" fill="#FFFFFF">
            <path d="M21.49,13.115 L12.49,8.115 C12.1805989,7.93636721 11.7994011,7.93636721 11.49,8.115 L2.49,13.115 C2.17974866,13.3007541 1.99276796,13.6384641 2,14 L2,23.995 C2.00264284,24.3578678 2.20165378,24.6908284 2.52,24.865 L11.52,29.865 C11.6661023,29.9496471 11.8311935,29.996079 12,30 C12.1718883,29.9955638 12.3400934,29.9492216 12.49,29.865 L21.49,24.865 C21.8041557,24.6903552 21.9992643,24.3594357 22.0000368,24 L22.0000368,14 C22.0031159,13.6343299 21.8079454,13.2956517 21.49,13.115 Z M11,27.295 L4,23.405 L4,15.685 L11,19.575 L11,27.295 Z M12,17.845 L5.06,14 L12,10.135 L18.94,13.995 L12,17.845 Z M20,23.405 L13,27.295 L13,19.575 L20,15.685 L20,23.405 Z M30,6 L26,6 L26,2 L24,2 L24,6 L20,6 L20,8 L24,8 L24,12 L26,12 L26,8 L30,8 L30,6 Z" id="Fill"></path>
        </g>
    </g>
</svg>